{
  "name": "MiniMap",
  "title": "MiniMap",
  "description": "MiniMap module",
  "version": "0.0.14",
  "author": "Jesusafier Ohh",
  "scripts": [
    "main.js"
  ],
  "minimumCoreVersion": "0.7.5",
  "compatibleCoreVersion": "0.7.7",
  "url": "https://gitlab.com/jesusafier/minimap/",
  "manifest": "https://gitlab.com/jesusafier/minimap/-/jobs/artifacts/master/raw/module.json?job=build-module",
  "download": "https://gitlab.com/jesusafier/minimap/-/jobs/artifacts/master/raw/MiniMap.zip?job=build-module"
}
